newmtl blue
Ns 1.000000
Ka 0.000000 0.000000 0.000000
Kd 0.640000 0.640000 0.640000
Ks 0.500000 0.500000 0.500000
Ni 1.000000
d  1.000000
illum 2
map_Kd blue.png

newmtl green
Ns 1.000000
Ka 0.000000 0.000000 0.000000
Kd 0.640000 0.640000 0.640000
Ks 0.500000 0.500000 0.500000
Ni 1.000000
d  1.000000
illum 2
map_Kd green.png

